<?xml version='1.0' encoding='UTF-8' standalone='no'?>
<svg height="16" xmlns:inkscape="http://www.inkscape.org/namespaces/inkscape" xmlns:sodipodi="http://sodipodi.sourceforge.net/DTD/sodipodi-0.dtd" version="1.1" width="16" xmlns="http://www.w3.org/2000/svg" enable-background="new">
 <metadata id="metadata90"/>
 <defs id="defs7386">
  <linearGradient id="linearGradient5606" osb:paint="solid">
   <stop id="stop5608"/>
  </linearGradient>
  <filter inkscape:collect="always" color-interpolation-filters="sRGB" id="filter7554">
   <feBlend inkscape:collect="always" id="feBlend7556" in2="BackgroundImage" mode="darken"/>
  </filter>
 </defs>
 <g inkscape:groupmode="layer" id="layer12" inkscape:label="actions" transform="translate(-461.0002,-109)">
  <rect height="4" id="rect5458" rx="2" transform="matrix(0,1,-1,0,0,0)" width="4" x="115" y="-477" fill="#bbbbbb" color="#000000"/>
  <rect height="4" id="rect5460" rx="2" transform="matrix(0,1,-1,0,0,0)" width="4" x="115" y="-471" fill="#bbbbbb" color="#000000"/>
  <rect height="4" id="rect5462" rx="2" transform="matrix(0,1,-1,0,0,0)" width="4" x="115" y="-465" fill="#bbbbbb" color="#000000"/>
 </g>
</svg>
