<?xml version='1.0' encoding='UTF-8' standalone='no'?>
<svg height="16" xmlns:inkscape="http://www.inkscape.org/namespaces/inkscape" xmlns:sodipodi="http://sodipodi.sourceforge.net/DTD/sodipodi-0.dtd" version="1.1" width="16" xmlns="http://www.w3.org/2000/svg" enable-background="new">
 <metadata id="metadata90"/>
 <defs id="defs7386">
  <linearGradient id="linearGradient5606" osb:paint="solid">
   <stop id="stop5608"/>
  </linearGradient>
  <filter inkscape:collect="always" color-interpolation-filters="sRGB" id="filter7554">
   <feBlend inkscape:collect="always" id="feBlend7556" in2="BackgroundImage" mode="darken"/>
  </filter>
 </defs>
 <g inkscape:groupmode="layer" id="layer12" inkscape:label="actions" transform="translate(-542.00018,-48.99327)">
  <g id="g4946" transform="matrix(1,0,0,-1,542.0002,65)">
   <path inkscape:connector-curvature="0" d="m 202,478 0,2 0,2 0,8 0,2 12,0 0,-5 -1,0 0,4 -10,0 0,-8.40625 0,-2.59375 0,-1 10,0 0,4 1,0 0,-5 z" id="path4948" sodipodi:nodetypes="cccccccccccccccccc" transform="translate(-200,-477)" fill="#bebebe" color="#bebebe"/>
  </g>
  <path inkscape:connector-curvature="0" d="m 553.0002,60 0,-2 4,0 0,-2 -4,0 0,-2 -4.5,3 z" id="path4952" sodipodi:nodetypes="cccccccc" fill="#bebebe"/>
 </g>
</svg>
