<?xml version='1.0' encoding='UTF-8' standalone='no'?>
<svg height="16" xmlns:inkscape="http://www.inkscape.org/namespaces/inkscape" xmlns:sodipodi="http://sodipodi.sourceforge.net/DTD/sodipodi-0.dtd" version="1.1" width="16" xmlns="http://www.w3.org/2000/svg" enable-background="new">
 <metadata id="metadata90"/>
 <defs id="defs7386">
  <linearGradient id="linearGradient5606" osb:paint="solid">
   <stop id="stop5608"/>
  </linearGradient>
  <filter inkscape:collect="always" color-interpolation-filters="sRGB" id="filter7554">
   <feBlend inkscape:collect="always" id="feBlend7556" in2="BackgroundImage" mode="darken"/>
  </filter>
 </defs>
 <g inkscape:groupmode="layer" id="layer12" inkscape:label="actions" transform="translate(-421.00041,-9.00002)">
  <path inkscape:connector-curvature="0" d="m 427.75041,15.84377 a 1.0001,1.0001 0 0 0 1.875,0.34375 l 3.3125,-5.625 a 1.0077822,1.0077822 0 1 0 -1.75,-1 l -3.3125,5.625 a 1.0001,1.0001 0 0 0 -0.125,0.65625 z" id="path36048" color="#000000" stroke-width="2" fill="#bbbbbb"/>
  <path inkscape:connector-curvature="0" d="m 426.21916,14.09377 4.94742,3.05384 c 0.60355,0.31472 0.81997,1.11313 0.16464,1.59705 l -0.62186,0.21653 -6.01923,-3.52145 0.0177,-0.90733 c 0.28883,-0.58524 0.75466,-0.81586 1.51132,-0.43864 z" id="path36050" sodipodi:nodetypes="ccccccc" fill="#bbbbbb" color="#000000" stroke-width="0.551"/>
  <path inkscape:connector-curvature="0" d="m 424.02408,16.20259 c -0.86313,0.347359 -1.55857,1.088513 -1.85035,1.971975 -0.29179,0.883462 -0.17456,1.893021 0.3119,2.686115 0.31236,0.509242 0.76492,0.925005 1.27614,1.234118 0.51121,0.309112 1.0804,0.514857 1.66271,0.648301 1.16462,0.266889 2.37246,0.256821 3.56727,0.256821 l 4.00866,0 c -0.84008,0.116229 -1.71187,-0.0063 -2.48737,-0.34956 -0.33811,-0.149661 -0.66216,-0.343654 -0.91582,-0.612672 -0.25366,-0.269018 -0.43293,-0.619146 -0.4496,-0.988518 -0.013,-0.288927 0.0756,-0.581442 0.24674,-0.814568 0.17118,-0.233126 0.42374,-0.405252 0.70332,-0.479322 l -6.0736,-3.55269" id="path36052" sodipodi:nodetypes="csccsscc" inkscape:original-d="m 424.02408,16.20259 c 0,0 -3.06048,2.99513 -1.53845,4.65809 1.6875,1.84375 5.40127,2.18343 6.50612,2.13924 l 4.00866,0 c -0.46875,-0.0937 -1.79747,0.11814 -2.48737,-0.34956 -0.68989,-0.46769 -1.05032,-1.34979 -1.36542,-1.60119 -0.6302,-0.5028 0.39449,-0.24794 0.95006,-1.29389 -0.13258,1.67938 -6.0736,-3.55269 -6.0736,-3.55269 z" inkscape:path-effect="#path-effect38569" fill="#bbbbbb" color="#000000" stroke-width="0.551"/>
 </g>
</svg>
