<?xml version='1.0' encoding='UTF-8' standalone='no'?>
<svg height="16" xmlns:inkscape="http://www.inkscape.org/namespaces/inkscape" xmlns:sodipodi="http://sodipodi.sourceforge.net/DTD/sodipodi-0.dtd" version="1.1" width="16" xmlns="http://www.w3.org/2000/svg" enable-background="new">
 <metadata id="metadata90"/>
 <defs id="defs7386">
  <linearGradient id="linearGradient5606" osb:paint="solid">
   <stop id="stop5608"/>
  </linearGradient>
  <filter inkscape:collect="always" color-interpolation-filters="sRGB" id="filter7554">
   <feBlend inkscape:collect="always" id="feBlend7556" in2="BackgroundImage" mode="darken"/>
  </filter>
 </defs>
 <g inkscape:groupmode="layer" id="layer12" inkscape:label="actions" transform="translate(-461.00018,-50.006729)">
  <path inkscape:connector-curvature="0" d="m 463.0002,51 0,3 0,1 0,10 12,0 0,-14 -12,0 z m 1,1 10,0 0,12 -10,0 0,-8.40625 0,-1.59375 0,-2 z" id="path6605" fill="#bebebe" color="#bebebe"/>
  <rect height="10" id="rect6615" width="8" x="465" y="53" opacity="0.35" fill="#bebebe"/>
  <path inkscape:connector-curvature="0" d="m 465.0002,53 0,1 7,0 0,-1 -7,0 z m 0,2 0,1 3,0 0,-1 -3,0 z m 4,0 0,1 3,0 0,-1 -3,0 z m -4,2 0,1 6,0 0,-1 -6,0 z m 0,2 0,1 3,0 0,-1 -3,0 z m 4,0 0,1 4,0 0,-1 -4,0 z" id="rect6617" fill="#bebebe"/>
 </g>
</svg>
