<?xml version='1.0' encoding='UTF-8' standalone='no'?>
<svg height="16" xmlns:inkscape="http://www.inkscape.org/namespaces/inkscape" xmlns:sodipodi="http://sodipodi.sourceforge.net/DTD/sodipodi-0.dtd" version="1.1" width="16" xmlns="http://www.w3.org/2000/svg" enable-background="new">
 <metadata id="metadata90"/>
 <defs id="defs7386">
  <linearGradient id="linearGradient5606" osb:paint="solid">
   <stop id="stop5608"/>
  </linearGradient>
  <filter inkscape:collect="always" color-interpolation-filters="sRGB" id="filter7554">
   <feBlend inkscape:collect="always" id="feBlend7556" in2="BackgroundImage" mode="darken"/>
  </filter>
 </defs>
 <g inkscape:groupmode="layer" id="layer12" inkscape:label="actions" transform="translate(-521.00021,-29.000002)">
  <path inkscape:connector-curvature="0" d="m 530.00038,30.999983 5,3 -5,3 0,-2 -3,0 c -1.6793,0 -3,1.3207 -3,3 0,1.6793 1.3207,3 3,3 l 5,0 0,2 -5,0 c -2.7527,0 -5,-2.2473 -5,-5 0,-2.7527 2.2473,-5 5,-5 l 3,0 0,-2 z" id="path5069" color="#bebebe" stroke-width="2" fill="#bbbbbb"/>
 </g>
</svg>
