<?xml version='1.0' encoding='UTF-8' standalone='no'?>
<svg height="16" xmlns:inkscape="http://www.inkscape.org/namespaces/inkscape" xmlns:sodipodi="http://sodipodi.sourceforge.net/DTD/sodipodi-0.dtd" version="1.1" width="16" xmlns="http://www.w3.org/2000/svg" enable-background="new">
 <metadata id="metadata90"/>
 <defs id="defs7386">
  <linearGradient id="linearGradient5606" osb:paint="solid">
   <stop id="stop5608"/>
  </linearGradient>
  <filter inkscape:collect="always" color-interpolation-filters="sRGB" id="filter7554">
   <feBlend inkscape:collect="always" id="feBlend7556" in2="BackgroundImage" mode="darken"/>
  </filter>
 </defs>
 <g inkscape:groupmode="layer" id="layer12" inkscape:label="actions" transform="translate(-321.00061,-69.00002)">
  <g id="g4910" transform="translate(220.00041,-287.99998)">
   <rect height="2" id="rect3825-9-8-7-9-1-5" inkscape:label="a" width="8" x="106" y="360" fill="#bbbbbb" color="#bbbbbb"/>
   <rect height="2" id="rect3825-9-8-7-8-4-7-6" inkscape:label="a" width="10" x="104" y="364" fill="#bbbbbb" color="#bbbbbb"/>
   <rect height="2" id="rect3825-9-8-7-8-9-9-8-3" inkscape:label="a" width="4" x="110" y="368" fill="#bbbbbb" color="#bbbbbb"/>
  </g>
 </g>
</svg>
