<?xml version='1.0' encoding='UTF-8' standalone='no'?>
<svg height="16" xmlns:inkscape="http://www.inkscape.org/namespaces/inkscape" xmlns:sodipodi="http://sodipodi.sourceforge.net/DTD/sodipodi-0.dtd" version="1.1" width="16" xmlns="http://www.w3.org/2000/svg" enable-background="new">
 <metadata id="metadata90"/>
 <defs id="defs7386">
  <linearGradient id="linearGradient5606" osb:paint="solid">
   <stop id="stop5608"/>
  </linearGradient>
  <filter inkscape:collect="always" color-interpolation-filters="sRGB" id="filter7554">
   <feBlend inkscape:collect="always" id="feBlend7556" in2="BackgroundImage" mode="darken"/>
  </filter>
 </defs>
 <g inkscape:groupmode="layer" id="layer12" inkscape:label="actions" transform="translate(-341.00061,-69.00002)">
  <rect height="2" id="rect3825-9-8-7-9-1-7" width="5" x="349" y="72" fill="#bbbbbb" color="#bbbbbb"/>
  <rect height="2" id="rect3825-9-8-7-8-4-7-66" width="6" x="349" y="76" fill="#bbbbbb" color="#bbbbbb"/>
  <rect height="2" id="rect3825-9-8-7-8-9-9-8-8" width="7" x="343" y="80" fill="#bbbbbb" color="#bbbbbb"/>
  <path inkscape:connector-curvature="0" d="M 343.00041,78.00002 347.00021,75 l -3.9998,-2.99998 z" id="path16889" sodipodi:nodetypes="cccc" fill="#bbbbbb"/>
 </g>
</svg>
