<?xml version='1.0' encoding='UTF-8' standalone='no'?>
<svg height="16" xmlns:inkscape="http://www.inkscape.org/namespaces/inkscape" xmlns:sodipodi="http://sodipodi.sourceforge.net/DTD/sodipodi-0.dtd" version="1.1" width="16" xmlns="http://www.w3.org/2000/svg" enable-background="new">
 <metadata id="metadata90"/>
 <defs id="defs7386">
  <linearGradient id="linearGradient5606" osb:paint="solid">
   <stop id="stop5608"/>
  </linearGradient>
  <filter inkscape:collect="always" color-interpolation-filters="sRGB" id="filter7554">
   <feBlend inkscape:collect="always" id="feBlend7556" in2="BackgroundImage" mode="darken"/>
  </filter>
 </defs>
 <g inkscape:groupmode="layer" id="layer12" inkscape:label="actions" transform="translate(-541.0002,-69.000001)">
  <path inkscape:connector-curvature="0" d="m 547.0002,69 0,2 6,0 c 0.42816,0 1,0.61414 1,1 l 0,1 -5,0 c -0.91927,0 -1.7356,0.38396 -2.25,0.96875 -0.5144,0.58479 -0.75639,1.31063 -0.75,2.03125 0.006,0.72062 0.26893,1.45271 0.78125,2.03125 C 547.29377,78.60979 548.09192,79 549.0002,79 l 5,0 1,0 1,0 0,-1.0625 0,-0.9375 0,-5 c 9e-5,-1.63434 -1.3198,-3 -3,-3 l -6,0 z m 2,6 5,0 0,2 -5,0 c -0.39787,0 -0.56691,-0.10979 -0.71875,-0.28125 -0.15184,-0.17146 -0.27877,-0.43937 -0.28125,-0.71875 -0.002,-0.27938 0.10467,-0.55354 0.25,-0.71875 C 548.39553,75.11604 548.57784,75 549.0002,75 z" id="path11643-3-2-9" fill="#bebebe"/>
  <path inkscape:connector-curvature="0" d="m 541.0002,81.000001 4.00021,-2.99995 10e-6,5.99999 z" id="path4484" sodipodi:nodetypes="cccc" fill="#bebebe"/>
  <path inkscape:connector-curvature="0" d="m 543.0004,79.986891 0,2 12.9375,0 0,-2 -12.9375,0 z" id="path4486" color="#000000" stroke-width="2" fill="#bebebe"/>
 </g>
</svg>
