<?xml version='1.0' encoding='UTF-8' standalone='no'?>
<svg height="16" xmlns:inkscape="http://www.inkscape.org/namespaces/inkscape" xmlns:sodipodi="http://sodipodi.sourceforge.net/DTD/sodipodi-0.dtd" version="1.1" width="16" xmlns="http://www.w3.org/2000/svg" enable-background="new">
 <metadata id="metadata90"/>
 <defs id="defs7386">
  <linearGradient id="linearGradient5606" osb:paint="solid">
   <stop id="stop5608"/>
  </linearGradient>
  <filter inkscape:collect="always" color-interpolation-filters="sRGB" id="filter7554">
   <feBlend inkscape:collect="always" id="feBlend7556" in2="BackgroundImage" mode="darken"/>
  </filter>
 </defs>
 <g inkscape:groupmode="layer" id="layer12" inkscape:label="actions" transform="translate(-341.0002,12)">
  <path inkscape:connector-curvature="0" d="m 355.0002,-6.78125 -1.375,-1.40625 -3.65625,3.65625 0.0312,-7.46875 -2,0 -0.0312,7.46875 -3.625,-3.65625 -1.375,1.40625 6.03125,6 6,-6 z m -4,8.78125 c 0,-1.104569 -0.89543,-2 -2,-2 -1.10457,0 -2,0.895431 -2,2 0,1.104569 0.89543,2 2,2 1.10457,0 2,-0.895431 2,-2 z" id="path5855" fill="#bebebe"/>
 </g>
</svg>
