<?xml version='1.0' encoding='UTF-8' standalone='no'?>
<svg height="16" xmlns:inkscape="http://www.inkscape.org/namespaces/inkscape" xmlns:sodipodi="http://sodipodi.sourceforge.net/DTD/sodipodi-0.dtd" version="1.1" width="16" xmlns="http://www.w3.org/2000/svg" enable-background="new">
 <metadata id="metadata90"/>
 <defs id="defs7386">
  <linearGradient id="linearGradient5606" osb:paint="solid">
   <stop id="stop5608"/>
  </linearGradient>
  <filter inkscape:collect="always" color-interpolation-filters="sRGB" id="filter7554">
   <feBlend inkscape:collect="always" id="feBlend7556" in2="BackgroundImage" mode="darken"/>
  </filter>
 </defs>
 <g inkscape:groupmode="layer" id="layer12" inkscape:label="actions" transform="translate(-281.00018,11)">
  <path inkscape:connector-curvature="0" d="m 288.78868,-8.9995105 1.38509,1.3858505 -3.63493,3.63476 8.46136,-0.0211 0,2 -8.46136,0.0211 3.63493,3.63439 -1.38509,1.38509 -6.00086,-6.04061 z" id="path4765" sodipodi:nodetypes="cccccccccc" fill="#bebebe"/>
 </g>
</svg>
