<?xml version='1.0' encoding='UTF-8' standalone='no'?>
<svg height="16" xmlns:inkscape="http://www.inkscape.org/namespaces/inkscape" xmlns:sodipodi="http://sodipodi.sourceforge.net/DTD/sodipodi-0.dtd" version="1.1" width="16" xmlns="http://www.w3.org/2000/svg" enable-background="new">
 <metadata id="metadata90"/>
 <defs id="defs7386">
  <linearGradient id="linearGradient5606" osb:paint="solid">
   <stop id="stop5608"/>
  </linearGradient>
  <filter inkscape:collect="always" color-interpolation-filters="sRGB" id="filter7554">
   <feBlend inkscape:collect="always" id="feBlend7556" in2="BackgroundImage" mode="darken"/>
  </filter>
 </defs>
 <g inkscape:groupmode="layer" id="layer12" inkscape:label="actions" transform="translate(-321.00021,-89.000002)">
  <path inkscape:connector-curvature="0" d="m 324.00021,89.000002 0,2 2,0 0,-2 -2,0 z m -3,3 0,2 11,0 0,10.999998 2,0 0,-10.999998 0,-2 -2,0 -11,0 z m 3,3 0,4.999998 0,2 2,0 5,0 0,-2 -5,0 0,-4.999998 -2,0 z m 11,4.999998 0,2 2,0 0,-2 -2,0 z" id="rect31984-5" fill="#bbbbbb" color="#bebebe"/>
 </g>
</svg>
