<?xml version='1.0' encoding='UTF-8' standalone='no'?>
<svg height="16" xmlns:inkscape="http://www.inkscape.org/namespaces/inkscape" xmlns:sodipodi="http://sodipodi.sourceforge.net/DTD/sodipodi-0.dtd" version="1.1" width="16" xmlns="http://www.w3.org/2000/svg" enable-background="new">
 <metadata id="metadata90"/>
 <defs id="defs7386">
  <linearGradient id="linearGradient5606" osb:paint="solid">
   <stop id="stop5608"/>
  </linearGradient>
  <filter inkscape:collect="always" color-interpolation-filters="sRGB" id="filter7554">
   <feBlend inkscape:collect="always" id="feBlend7556" in2="BackgroundImage" mode="darken"/>
  </filter>
 </defs>
 <g inkscape:groupmode="layer" id="layer12" inkscape:label="actions" transform="translate(-281.00061,30.99998)">
  <path inkscape:connector-curvature="0" d="m 289.00041,-22.99998 7,4 0,-8 z" id="path3807-1-1-4-7-2" sodipodi:nodetypes="cccc" fill="#bbbbbb"/>
  <path inkscape:connector-curvature="0" d="m 282.00041,-22.99998 7,4 0,-8 z" id="path3807-1-1-4-7-2-0" sodipodi:nodetypes="cccc" fill="#bbbbbb"/>
 </g>
</svg>
