<?xml version='1.0' encoding='UTF-8' standalone='no'?>
<svg height="16" xmlns:inkscape="http://www.inkscape.org/namespaces/inkscape" xmlns:sodipodi="http://sodipodi.sourceforge.net/DTD/sodipodi-0.dtd" version="1.1" width="16" xmlns="http://www.w3.org/2000/svg" enable-background="new">
 <metadata id="metadata90"/>
 <defs id="defs7386">
  <linearGradient id="linearGradient5606" osb:paint="solid">
   <stop id="stop5608"/>
  </linearGradient>
  <filter inkscape:collect="always" color-interpolation-filters="sRGB" id="filter7554">
   <feBlend inkscape:collect="always" id="feBlend7556" in2="BackgroundImage" mode="darken"/>
  </filter>
 </defs>
 <g inkscape:groupmode="layer" id="layer12" inkscape:label="actions" transform="translate(-403.00023,-129.99329)">
  <path inkscape:connector-curvature="0" d="m 404.0002,131 0,0.40625 a 0.50005,0.50005 0 0 0 0,0.0937 l 0,0.5 0,0.5 0,1 0,1.5 0,0.5 0,0.5 0,7 c 0,0.83333 0.57399,1.50574 1.0625,1.75 0.48851,0.24436 0.9375,0.25005 0.9375,0.25005 l 10,0 c 0,0 0.44899,-0.006 0.9375,-0.25 0.48851,-0.24426 1.0625,-0.91667 1.0625,-1.75 l 0,-8 0,-0.5 0,-0.5 0,-0.5 a 0.50005,0.50005 0 0 0 0,-0.0937 l 0,-0.4063 -0.40625,0 -0.0937,0 -0.5,0 -4.5,0 c -0.26389,0 -0.42709,-0.0542 -0.59375,-0.1875 -0.16666,-0.13333 -0.3125,-0.375 -0.5,-0.625 -0.1875,-0.25 -0.41666,-0.50833 -0.71875,-0.75 C 410.38561,131.19583 409.98631,131 409.5002,131 l -4.5,0 -0.65625,0 -0.34375,0 z m 1,1 4.5,0 c 0.26389,0 0.42709,0.0542 0.59375,0.1875 0.16666,0.13333 0.3125,0.375 0.5,0.625 0.1875,0.25 0.41666,0.50833 0.71875,0.75 0.30209,0.24167 0.70139,0.4375 1.1875,0.4375 l 4.5,0 0,0.5 0,0.5 -12,0 0,-1.5 0,-1 0,-0.5 z m 0,4 12,0 0,7 c 0,0.37414 -0.38784,0.78767 -0.5,0.84375 -0.27525,0.13748 -0.5,0.15625 -0.5,0.15625 l -10,0 c 0,0 -0.22511,-0.0188 -0.5,-0.15625 -0.11216,-0.0561 -0.5,-0.46961 -0.5,-0.84375 l 0,-7 z" id="path5144-90" color="#000000" stroke-width="2" fill="#bebebe"/>
 </g>
</svg>
