<?xml version='1.0' encoding='UTF-8' standalone='no'?>
<svg height="16" xmlns:inkscape="http://www.inkscape.org/namespaces/inkscape" xmlns:sodipodi="http://sodipodi.sourceforge.net/DTD/sodipodi-0.dtd" version="1.1" width="16" xmlns="http://www.w3.org/2000/svg" enable-background="new">
 <metadata id="metadata90"/>
 <defs id="defs7386">
  <linearGradient id="linearGradient5606" osb:paint="solid">
   <stop id="stop5608"/>
  </linearGradient>
  <filter inkscape:collect="always" color-interpolation-filters="sRGB" id="filter7554">
   <feBlend inkscape:collect="always" id="feBlend7556" in2="BackgroundImage" mode="darken"/>
  </filter>
 </defs>
 <g inkscape:groupmode="layer" id="layer12" inkscape:label="actions" transform="translate(-401.0002,-109)">
  <path inkscape:connector-curvature="0" d="m 403.0002,111 2e-4,2 2,0 0,-2 z m 3.0002,0 0,2 7,0 0,-2 z" id="path6302" sodipodi:nodetypes="cccccccccc" fill="#bebebe" color="#bebebe"/>
  <path inkscape:connector-curvature="0" d="m 406,114 2e-4,2 2,0 0,-2 -0.75,0 z m 3.0004,0 -2e-4,2 6.9998,0 2e-4,-2 z" id="path6304" sodipodi:nodetypes="ccccccccccc" fill="#bebebe" color="#bebebe"/>
  <path inkscape:connector-curvature="0" d="m 403.0004,117 2e-4,2 2,0 0,-2 z m 3,0 2e-4,2 7,0 -2e-4,-2 z" id="path6306" sodipodi:nodetypes="cccccccccc" fill="#bebebe" color="#bebebe"/>
  <path inkscape:connector-curvature="0" d="m 403.0004,120 2e-4,2 2,0 0,-2 z m 3,0 2e-4,2 7,0 -2e-4,-2 z" id="path6308" sodipodi:nodetypes="cccccccccc" fill="#bebebe" color="#bebebe"/>
 </g>
</svg>
