<?xml version='1.0' encoding='UTF-8' standalone='no'?>
<svg height="16" xmlns:inkscape="http://www.inkscape.org/namespaces/inkscape" xmlns:sodipodi="http://sodipodi.sourceforge.net/DTD/sodipodi-0.dtd" version="1.1" width="16" xmlns="http://www.w3.org/2000/svg" enable-background="new">
 <metadata id="metadata90"/>
 <defs id="defs7386">
  <linearGradient id="linearGradient5606" osb:paint="solid">
   <stop id="stop5608"/>
  </linearGradient>
  <filter inkscape:collect="always" color-interpolation-filters="sRGB" id="filter7554">
   <feBlend inkscape:collect="always" id="feBlend7556" in2="BackgroundImage" mode="darken"/>
  </filter>
 </defs>
 <g inkscape:groupmode="layer" id="layer12" inkscape:label="actions" transform="translate(-433.0002,-149)">
  <path inkscape:connector-curvature="0" d="m 433.0002,150 0,14 7,0 1,0 7,0 0,-14 -7,0 -1,0 -7,0 z m 1,1 6,0 0,12 -6,0 0,-12 z m 7,0 6,0 0,12 -6,0 0,-12 z" id="rect5700" fill="#bebebe"/>
 </g>
</svg>
