<?xml version='1.0' encoding='UTF-8' standalone='no'?>
<svg height="16" xmlns:inkscape="http://www.inkscape.org/namespaces/inkscape" xmlns:sodipodi="http://sodipodi.sourceforge.net/DTD/sodipodi-0.dtd" version="1.1" width="16" xmlns="http://www.w3.org/2000/svg" enable-background="new">
 <metadata id="metadata90"/>
 <defs id="defs7386">
  <linearGradient id="linearGradient5606" osb:paint="solid">
   <stop id="stop5608"/>
  </linearGradient>
  <filter inkscape:collect="always" color-interpolation-filters="sRGB" id="filter7554">
   <feBlend inkscape:collect="always" id="feBlend7556" in2="BackgroundImage" mode="darken"/>
  </filter>
 </defs>
 <g inkscape:groupmode="layer" id="layer12" inkscape:label="actions" transform="translate(-280.9379,-8.937521)">
  <path inkscape:connector-curvature="0" d="m 293.9377,9.9375 -2.5,2.5 -1.4375,-1.4375 0,1 0,4 4,0 1,0 -1.4375,-1.4375 2.5,-2.5 -0.34375,-0.34375 -1.4375,-1.4375 z" id="path8061" sodipodi:nodetypes="cccccccccccc" fill="#bbbbbb"/>
  <path inkscape:connector-curvature="0" d="m 283.0002,18 1.4375,1.4375 -2.5,2.5 0.34375,0.34375 1.4375,1.4375 0.34375,0.34375 2.5,-2.5 1.4375,1.4375 0,-1 0,-4 -4,0 z" id="path8065" sodipodi:nodetypes="cccccccccccc" fill="#bbbbbb"/>
 </g>
</svg>
