<?xml version='1.0' encoding='UTF-8' standalone='no'?>
<svg height="16" xmlns:inkscape="http://www.inkscape.org/namespaces/inkscape" xmlns:sodipodi="http://sodipodi.sourceforge.net/DTD/sodipodi-0.dtd" version="1.1" width="16" xmlns="http://www.w3.org/2000/svg" enable-background="new">
 <metadata id="metadata90"/>
 <defs id="defs7386">
  <linearGradient id="linearGradient5606" osb:paint="solid">
   <stop id="stop5608"/>
  </linearGradient>
  <filter inkscape:collect="always" color-interpolation-filters="sRGB" id="filter7554">
   <feBlend inkscape:collect="always" id="feBlend7556" in2="BackgroundImage" mode="darken"/>
  </filter>
 </defs>
 <g inkscape:groupmode="layer" id="layer12" inkscape:label="actions" transform="translate(-561.0002,31)">
  <path inkscape:connector-curvature="0" d="m 574.0002,-23 -1.78125,-1.7813 1.5,-1.5 -1.4375,-1.4375 -1.5,1.5 -1.78125,-1.7812 0,5 z m -5,5 0,-5 -5,0 1.78125,1.7812 -1.5,1.5 1.4375,1.4375 1.5,-1.5 z" id="path4564" sodipodi:nodetypes="cccccccccccccccc" fill="#bebebe"/>
 </g>
</svg>
