<?xml version='1.0' encoding='UTF-8' standalone='no'?>
<svg height="16" xmlns:inkscape="http://www.inkscape.org/namespaces/inkscape" xmlns:sodipodi="http://sodipodi.sourceforge.net/DTD/sodipodi-0.dtd" version="1.1" width="16" xmlns="http://www.w3.org/2000/svg" enable-background="new">
 <metadata id="metadata90"/>
 <defs id="defs7386">
  <linearGradient id="linearGradient5606" osb:paint="solid">
   <stop id="stop5608"/>
  </linearGradient>
  <filter inkscape:collect="always" color-interpolation-filters="sRGB" id="filter7554">
   <feBlend inkscape:collect="always" id="feBlend7556" in2="BackgroundImage" mode="darken"/>
  </filter>
 </defs>
 <g inkscape:groupmode="layer" id="g71291" inkscape:label="emotes" transform="translate(-841.00038,81.000006)">
  <path inkscape:connector-curvature="0" d="m 849.00021,-80 c 3.86599,0 7,3.13401 7,7 0,3.86599 -3.13401,7 -7,7 -3.86599,0 -7,-3.13401 -7,-7 0,-3.86599 3.13401,-7 7,-7 z m -2.46875,3 c -0.73437,0 -1.46875,0.44603 -1.53125,1.3125 -0.125,1.73294 1.5,-0.33848 3,0 0,-0.86647 -0.73438,-1.3125 -1.46875,-1.3125 z m 4.9375,0 c -0.73437,0 -1.46875,0.44603 -1.46875,1.3125 1.5,-0.33848 3.125,1.73294 3,0 C 852.93771,-76.55397 852.20333,-77 851.46896,-77 z m -2.46875,3 c -1.38071,0 -2.5,1.34315 -2.5,3 0,1.65685 1.11929,3 2.5,3 1.38071,0 2.5,-1.34315 2.5,-3 0,-1.65685 -1.11929,-3 -2.5,-3 z" id="path5843" sodipodi:nodetypes="ssssssscsscsssssss" fill="#bbbbbb" color="#bebebe" stroke-width="2"/>
 </g>
</svg>
