<?xml version='1.0' encoding='UTF-8' standalone='no'?>
<svg height="16" xmlns:inkscape="http://www.inkscape.org/namespaces/inkscape" xmlns:sodipodi="http://sodipodi.sourceforge.net/DTD/sodipodi-0.dtd" version="1.1" width="16" xmlns="http://www.w3.org/2000/svg" enable-background="new">
 <metadata id="metadata90"/>
 <defs id="defs7386">
  <linearGradient id="linearGradient5606" osb:paint="solid">
   <stop id="stop5608"/>
  </linearGradient>
  <filter inkscape:collect="always" color-interpolation-filters="sRGB" id="filter7554">
   <feBlend inkscape:collect="always" id="feBlend7556" in2="BackgroundImage" mode="darken"/>
  </filter>
 </defs>
 <g inkscape:groupmode="layer" id="g71291" inkscape:label="emotes" transform="translate(-861.00032,80.999998)">
  <path inkscape:connector-curvature="0" d="m 869.0002,-80 c -3.86599,0 -7,3.13401 -7,7 0,3.86599 3.13401,7 7,7 3.86599,0 7,-3.13401 7,-7 0,-3.86599 -3.13401,-7 -7,-7 z m -3,4 c 0.55407,0 1,0.44945 1,1 0,0.55064 -0.44593,1 -1,1 -0.55424,0 -1,-0.44936 -1,-1 0,-0.55055 0.44576,-1 1,-1 z m 6,0 c 0.55415,0 1,0.44945 1,1 0,0.55064 -0.44585,1 -1,1 -0.55407,0 -1,-0.44936 -1,-1 0,-0.55055 0.44593,-1 1,-1 z m -6.875,3 a 0.50005,0.50005 0 0 1 0.0625,0 0.50005,0.50005 0 0 1 0.375,0.0625 c 0.72245,0.44361 1.1725,1.16626 1.34375,1.9375 l 4.1875,0 c 0.17125,-0.77124 0.6213,-1.46264 1.34375,-1.90625 a 0.50005,0.50005 0 0 1 0.375,-0.0625 0.50005,0.50005 0 0 1 0.15625,0.90625 c -0.94633,0.58108 -1.26858,1.80367 -0.6875,2.75 0.0962,0.15658 0.23992,0.31293 0.375,0.4375 a 0.50871314,0.50871314 0 0 1 -0.6875,0.75 c -0.20262,-0.18685 -0.38703,-0.42138 -0.53125,-0.65625 -0.23297,-0.37941 -0.35813,-0.80247 -0.40625,-1.21875 l -4.0625,0 c -0.0481,0.41628 -0.17328,0.80809 -0.40625,1.1875 -0.14827,0.24146 -0.32148,0.46577 -0.53125,0.65625 a 0.50871314,0.50871314 0 0 1 -0.6875,-0.75 c 0.13985,-0.12699 0.2762,-0.27652 0.375,-0.4375 0.58108,-0.94633 0.25883,-2.16892 -0.6875,-2.75 A 0.50005,0.50005 0 0 1 865.1252,-73 z" id="path8009" fill="#bbbbbb" color="#bebebe"/>
 </g>
</svg>
