<?xml version='1.0' encoding='UTF-8' standalone='no'?>
<svg height="16" xmlns:inkscape="http://www.inkscape.org/namespaces/inkscape" xmlns:sodipodi="http://sodipodi.sourceforge.net/DTD/sodipodi-0.dtd" version="1.1" width="16" xmlns="http://www.w3.org/2000/svg" enable-background="new">
 <metadata id="metadata90"/>
 <defs id="defs7386">
  <linearGradient id="linearGradient5606" osb:paint="solid">
   <stop id="stop5608"/>
  </linearGradient>
  <filter inkscape:collect="always" color-interpolation-filters="sRGB" id="filter7554">
   <feBlend inkscape:collect="always" id="feBlend7556" in2="BackgroundImage" mode="darken"/>
  </filter>
 </defs>
 <g inkscape:groupmode="layer" id="layer9" inkscape:label="status" transform="translate(-401.0002,223)">
  <path inkscape:connector-curvature="0" d="m 409.00022,-222 c -2.20914,0 -4,1.79086 -4,4 0,2.20914 1.79086,4 4,4 2.20914,0 4,-1.79086 4,-4 0,-2.20914 -1.79086,-4 -4,-4 z" id="path6751-4-5" sodipodi:nodetypes="sssss" fill="#bebebe" color="#bebebe"/>
  <path inkscape:connector-curvature="0" d="m 405.78147,-214.21875 c -2.24866,1.16455 -2.78125,3.51165 -2.78125,6.21875 l 12,0 c 0,-2.7071 -0.53259,-5.0542 -2.78125,-6.21875 -0.87459,0.74817 -1.98482,1.21875 -3.21875,1.21875 -1.23393,0 -2.34416,-0.47058 -3.21875,-1.21875 z" id="path6729-2-3" sodipodi:nodetypes="ccccsc" fill="#bebebe" fill-rule="evenodd"/>
 </g>
</svg>
