<?xml version='1.0' encoding='UTF-8' standalone='no'?>
<svg height="16" xmlns:inkscape="http://www.inkscape.org/namespaces/inkscape" xmlns:sodipodi="http://sodipodi.sourceforge.net/DTD/sodipodi-0.dtd" version="1.1" width="16" xmlns="http://www.w3.org/2000/svg" enable-background="new">
 <metadata id="metadata90"/>
 <defs id="defs7386">
  <linearGradient id="linearGradient5606" osb:paint="solid">
   <stop id="stop5608"/>
  </linearGradient>
  <filter inkscape:collect="always" color-interpolation-filters="sRGB" id="filter7554">
   <feBlend inkscape:collect="always" id="feBlend7556" in2="BackgroundImage" mode="darken"/>
  </filter>
 </defs>
 <g inkscape:groupmode="layer" id="layer9" inkscape:label="status" transform="translate(-561.00026,301.99998)">
  <path inkscape:connector-curvature="0" d="m 569.00046,-300.99998 c -3.86588,0 -7,3.13397 -7,7 0,3.86603 3.13412,7 7,7 3.86603,0 7,-3.13397 7,-7 0,-3.86603 -3.13397,-7 -7,-7 z m -5,6 10,0 0,2 -10,0 0,-2 z" id="path24" fill="#ef2929"/>
 </g>
</svg>
