<?xml version='1.0' encoding='UTF-8' standalone='no'?>
<svg height="16" xmlns:inkscape="http://www.inkscape.org/namespaces/inkscape" xmlns:sodipodi="http://sodipodi.sourceforge.net/DTD/sodipodi-0.dtd" version="1.1" width="16.02" xmlns="http://www.w3.org/2000/svg" enable-background="new">
 <metadata id="metadata90"/>
 <defs id="defs7386">
  <linearGradient id="linearGradient5606" osb:paint="solid">
   <stop id="stop5608"/>
  </linearGradient>
  <filter inkscape:collect="always" color-interpolation-filters="sRGB" id="filter7554">
   <feBlend inkscape:collect="always" id="feBlend7556" in2="BackgroundImage" mode="darken"/>
  </filter>
 </defs>
 <g inkscape:groupmode="layer" id="layer9" inkscape:label="status" transform="translate(-320.98274,241.99998)">
  <path inkscape:connector-curvature="0" d="m 326.00026,-230 6,0 0,-2.5 c 0,-0.5 -0.5,-0.5 -0.5,-0.5 l -5,0 c 0,0 -0.5,0 -0.5,0.5 z" id="path7977" sodipodi:nodetypes="ccccccc" fill="#bbbbbb" color="#000000"/>
  <path inkscape:connector-curvature="0" d="m 328.00026,-236 2,0 -1,-3 z" id="path5922" sodipodi:nodetypes="cccc" fill="#bbbbbb"/>
  <path inkscape:connector-curvature="0" d="m 324.75762,-233.82843 1.41421,-1.41421 -2.82842,-1.41422 z" id="path5974" sodipodi:nodetypes="cccc" fill="#bbbbbb"/>
  <path inkscape:connector-curvature="0" d="m 323.98274,-230.00726 0,-2 -3,1 z" id="path5980" sodipodi:nodetypes="cccc" fill="#bbbbbb"/>
  <path inkscape:connector-curvature="0" d="m 333.98274,-230.00726 0,-2 3,1.04956 z" id="path5982" sodipodi:nodetypes="cccc" fill="#bbbbbb"/>
  <path inkscape:connector-curvature="0" d="m 333.22538,-233.83569 -1.41422,-1.41421 2.86348,-1.37917 z" id="path5988" sodipodi:nodetypes="cccc" fill="#bbbbbb"/>
 </g>
</svg>
