<?xml version='1.0' encoding='UTF-8' standalone='no'?>
<svg height="16" xmlns:inkscape="http://www.inkscape.org/namespaces/inkscape" xmlns:sodipodi="http://sodipodi.sourceforge.net/DTD/sodipodi-0.dtd" version="1.1" width="16" xmlns="http://www.w3.org/2000/svg" enable-background="new">
 <metadata id="metadata90"/>
 <defs id="defs7386">
  <linearGradient id="linearGradient5606" osb:paint="solid">
   <stop id="stop5608"/>
  </linearGradient>
  <filter inkscape:collect="always" color-interpolation-filters="sRGB" id="filter7554">
   <feBlend inkscape:collect="always" id="feBlend7556" in2="BackgroundImage" mode="darken"/>
  </filter>
 </defs>
 <g inkscape:groupmode="layer" id="layer9" inkscape:label="status" transform="translate(-477.00016,238.99998)">
  <path inkscape:connector-curvature="0" d="m 492.00016,-235.99998 0,0.9375 0,1.0625 -4,0 c -0.5713,0 -1,0.4287 -1,1 l 0,4 c 0,1.6447 -1.3553,3 -3,3 l -5,0 0,-2 5,0 c 0.5713,0 1,-0.4287 1,-1 l 0,-4 c 0,-1.6447 1.3553,-3 3,-3 z" id="path5064" sodipodi:nodetypes="cccssssccssssc" fill="#bbbbbb" color="#bbbbbb"/>
  <path inkscape:connector-curvature="0" d="m 484.00016,-235.99998 c 0.22957,0 0.44085,0.0438 0.65625,0.0937 -0.4813,0.5511 -0.86125,1.1776 -1.0312,1.9062 l -4.625,0 0,-2 5,0 z m 8,10 -4,0 c -0.22957,0 -0.44085,-0.0438 -0.65625,-0.0937 0.4813,-0.55115 0.86125,-1.1777 1.0312,-1.9063 l 3.62505,0 z" id="path5066" sodipodi:nodetypes="ccccccccscccc" fill="#bbbbbb" color="#bbbbbb"/>
  <path inkscape:connector-curvature="0" d="m 481.00016,-237.99998 0,6 -4,-3 z" id="path5068" fill="#bbbbbb"/>
  <path inkscape:connector-curvature="0" d="m 481.00016,-229.99998 0,6 -4,-3 z" id="path5070" fill="#bbbbbb"/>
 </g>
</svg>
