<?xml version='1.0' encoding='UTF-8' standalone='no'?>
<svg height="16" xmlns:inkscape="http://www.inkscape.org/namespaces/inkscape" xmlns:sodipodi="http://sodipodi.sourceforge.net/DTD/sodipodi-0.dtd" version="1.1" width="16" xmlns="http://www.w3.org/2000/svg" enable-background="new">
 <metadata id="metadata90"/>
 <defs id="defs7386">
  <linearGradient id="linearGradient5606" osb:paint="solid">
   <stop id="stop5608"/>
  </linearGradient>
  <filter inkscape:collect="always" color-interpolation-filters="sRGB" id="filter7554">
   <feBlend inkscape:collect="always" id="feBlend7556" in2="BackgroundImage" mode="darken"/>
  </filter>
 </defs>
 <g inkscape:groupmode="layer" id="layer9" inkscape:label="status" transform="translate(-280.99742,403)">
  <path inkscape:connector-curvature="0" d="m 289.03147,-401 c -3.03435,0 -5.76588,1.07815 -8.03125,2.75 l 8.03125,8.75 7.96875,-8.78125 C 294.74361,-399.93454 292.04252,-401 289.03147,-401 z m -0.0625,1 c 2.39362,0 4.52424,0.83638 6.4375,2.03125 l -6.4375,7 -6.375,-7.03125 c 1.90092,-1.17864 4.00536,-2 6.375,-2 z" id="path7329" fill="#bebebe" color="#000000"/>
  <path inkscape:connector-curvature="0" d="m 288.96897,-398.03125 c -1.48743,0 -2.84903,0.42163 -4.09375,1.0625 l 4.09375,4.5 4.125,-4.46875 c -1.25406,-0.64891 -2.62459,-1.09375 -4.125,-1.09375 z" id="path7337" fill="#bebebe" color="#000000"/>
 </g>
</svg>
