<?xml version='1.0' encoding='UTF-8' standalone='no'?>
<svg height="16" xmlns:inkscape="http://www.inkscape.org/namespaces/inkscape" xmlns:sodipodi="http://sodipodi.sourceforge.net/DTD/sodipodi-0.dtd" version="1.1" width="16" xmlns="http://www.w3.org/2000/svg" enable-background="new">
 <metadata id="metadata90"/>
 <defs id="defs7386">
  <linearGradient id="linearGradient5606" osb:paint="solid">
   <stop id="stop5608"/>
  </linearGradient>
  <filter inkscape:collect="always" color-interpolation-filters="sRGB" id="filter7554">
   <feBlend inkscape:collect="always" id="feBlend7556" in2="BackgroundImage" mode="darken"/>
  </filter>
 </defs>
 <g inkscape:groupmode="layer" id="layer9" inkscape:label="status" transform="translate(-261.00046,321.99998)">
  <g id="layer9-8" transform="translate(200.00046,-558.99998)" fill="#bbbbbb">
   <path inkscape:connector-curvature="0" d="m 2.9998,0.99998 c 0,0 -2,0 -2,2.0625 l 0,9.9375 c 0,2 2,2 2,2 l 10,0 c 2,0 2,-2 2,-2 l 0,-10 c 0,0 0,-2 -2,-2 z M 6,3 10,3 c 2,0 2.052216,2.3514242 2,2 l 0,1 -2,0 0,-1 -4,0 0,6 4,0 0,-1 -2,0 C 8,10 8,10 8,9 8,8 8,8 8,8 l 4,0 c 0,0 0,1 0,1.03125 L 12,11 c 0,0 0,2 -2,2 L 6,13 C 6,13 4,13 4,11 L 4,5 C 4,3 6,3 6,3 z" id="rect7011" sodipodi:nodetypes="csscscccccccccccccccsccccccccc" transform="translate(61,237)" color="#bbbbbb"/>
  </g>
 </g>
</svg>
