<?xml version='1.0' encoding='UTF-8' standalone='no'?>
<svg height="16" xmlns:inkscape="http://www.inkscape.org/namespaces/inkscape" xmlns:sodipodi="http://sodipodi.sourceforge.net/DTD/sodipodi-0.dtd" version="1.1" width="16" xmlns="http://www.w3.org/2000/svg" enable-background="new">
 <metadata id="metadata90"/>
 <defs id="defs7386">
  <linearGradient id="linearGradient5606" osb:paint="solid">
   <stop id="stop5608"/>
  </linearGradient>
  <filter inkscape:collect="always" color-interpolation-filters="sRGB" id="filter7554">
   <feBlend inkscape:collect="always" id="feBlend7556" in2="BackgroundImage" mode="darken"/>
  </filter>
 </defs>
 <g inkscape:groupmode="layer" id="layer9" inkscape:label="status" transform="translate(-261.0002,143)">
  <path inkscape:connector-curvature="0" d="m 269.0002,-142.60742 -2.11914,5.49414 -5.88086,0.31641 4.57227,3.71484 -1.51563,5.6914 1.63281,-1.05859 3.31055,-2.14258 4.94336,3.20117 -1.51563,-5.6914 4.57227,-3.71484 -5.88086,-0.31641 -2.11914,-5.49414 z m 0,2.7793 1.41797,3.67968 3.93945,0.21094 -3.0625,2.48633 1.01563,3.81055 -3.31055,-2.14258 -3.31055,2.14258 1.01563,-3.81055 -3.06055,-2.48633 3.9375,-0.21094 0.95117,-2.4707 0.4668,-1.20898 z" id="polygon5-7" opacity="0.35" color="#000000" stroke-width="5.359" fill="#bebebe"/>
 </g>
</svg>
