<?xml version='1.0' encoding='UTF-8' standalone='no'?>
<svg height="16" xmlns:inkscape="http://www.inkscape.org/namespaces/inkscape" xmlns:sodipodi="http://sodipodi.sourceforge.net/DTD/sodipodi-0.dtd" version="1.1" width="16" xmlns="http://www.w3.org/2000/svg" enable-background="new">
 <metadata id="metadata90"/>
 <defs id="defs7386">
  <linearGradient id="linearGradient5606" osb:paint="solid">
   <stop id="stop5608"/>
  </linearGradient>
  <filter inkscape:collect="always" color-interpolation-filters="sRGB" id="filter7554">
   <feBlend inkscape:collect="always" id="feBlend7556" in2="BackgroundImage" mode="darken"/>
  </filter>
 </defs>
 <g inkscape:groupmode="layer" id="layer9" inkscape:label="status" transform="translate(-481.0002,183)">
  <path inkscape:connector-curvature="0" d="m 493.94995,-179.94975 c -2.73367,-2.73367 -7.16583,-2.73367 -9.8995,0 -2.73367,2.73367 -2.73367,7.16583 0,9.8995 2.73368,2.73367 7.16583,2.73367 9.8995,0 1.97353,-1.97353 2.51117,-4.82621 1.63518,-7.29204 l -5.87782,5.87782 -1.41422,1.41422 -1.41421,-1.41422 -2.82843,-2.82842 1.41422,-1.41422 2.82842,2.82843 6.29767,-6.29767 c -0.19867,-0.26536 -0.39957,-0.53215 -0.64081,-0.7734 z" id="path2922-6-6-0" fill="#bebebe" color="#000000" stroke-width="0.843"/>
 </g>
</svg>
