<?xml version='1.0' encoding='UTF-8' standalone='no'?>
<svg height="16" xmlns:inkscape="http://www.inkscape.org/namespaces/inkscape" xmlns:sodipodi="http://sodipodi.sourceforge.net/DTD/sodipodi-0.dtd" version="1.1" width="16" xmlns="http://www.w3.org/2000/svg" enable-background="new">
 <metadata id="metadata90"/>
 <defs id="defs7386">
  <linearGradient id="linearGradient5606" osb:paint="solid">
   <stop id="stop5608"/>
  </linearGradient>
  <filter inkscape:collect="always" color-interpolation-filters="sRGB" id="filter7554">
   <feBlend inkscape:collect="always" id="feBlend7556" in2="BackgroundImage" mode="darken"/>
  </filter>
 </defs>
 <g inkscape:groupmode="layer" id="layer9" inkscape:label="status" transform="translate(-321.0002,143)">
  <path inkscape:connector-curvature="0" d="m 329.0002,-142.59375 0,2.78125 0,8.03125 0,1.1875 3.3125,2.15625 1.625,1.0625 -1.5,-5.71875 4.5625,-3.71875 -5.875,-0.3125 -2.125,-5.46875 z" id="path6372" color="#000000" stroke-width="5.359" fill="#bebebe"/>
  <path inkscape:connector-curvature="0" d="m 329.0002,-142.59375 -2.125,5.46875 -5.875,0.3125 4.5625,3.71875 -1.5,5.71875 4.9375,-3.21875 0,-1.1875 -3.3125,2.15625 1.03125,-3.8125 -3.0625,-2.5 3.9375,-0.21875 1.40625,-3.65625 0,-2.78125 z" id="path6591" opacity="0.35" color="#000000" stroke-width="5.359" fill="#bebebe"/>
 </g>
</svg>
