<?xml version='1.0' encoding='UTF-8' standalone='no'?>
<svg height="16" xmlns:inkscape="http://www.inkscape.org/namespaces/inkscape" xmlns:sodipodi="http://sodipodi.sourceforge.net/DTD/sodipodi-0.dtd" version="1.1" width="16" xmlns="http://www.w3.org/2000/svg" enable-background="new">
 <metadata id="metadata90"/>
 <defs id="defs7386">
  <linearGradient id="linearGradient5606" osb:paint="solid">
   <stop id="stop5608"/>
  </linearGradient>
  <filter inkscape:collect="always" color-interpolation-filters="sRGB" id="filter7554">
   <feBlend inkscape:collect="always" id="feBlend7556" in2="BackgroundImage" mode="darken"/>
  </filter>
 </defs>
 <g inkscape:groupmode="layer" id="layer9" inkscape:label="status" transform="translate(-401.00015,302)">
  <path inkscape:connector-curvature="0" d="m 409.0002,-301.75 -2.03125,2.53125 -3.1875,-0.625 0.0937,3.25 -2.875,1.5625 2.15625,2.4375 -1.1875,3.03125 3.21875,0.46875 1.0313,3.09375 2.78125,-1.71875 2.78125,1.71875 1.03125,-3.09375 3.21875,-0.46875 -1.1875,-3.03125 2.15625,-2.4375 -2.875,-1.5625 0.0937,-3.25 -3.1875,0.625 z m 0,4.34375 0.71875,0.6875 2,2 c 0.2236,0.22597 0.33131,0.56107 0.28125,0.875 l 0,0.84375 -0.875,0 c -0.30421,0.0401 -0.62444,-0.0666 -0.84375,-0.28125 l -0.28125,-0.28125 0,3.5625 -2,0 0,-3.5625 -0.28125,0.28125 c -0.19083,0.18226 -0.45489,0.28559 -0.71875,0.28125 l -0.15625,0 -0.84375,0 0,-0.78125 c -0.001,-0.0312 -0.001,-0.0625 0,-0.0937 -0.0401,-0.30421 0.0667,-0.62444 0.28125,-0.84375 l 2,-2 z" id="path5744" sodipodi:nodetypes="ccccccccccccccccccccccccccccccccccccccc" fill="#bebebe"/>
 </g>
</svg>
