<?xml version='1.0' encoding='UTF-8' standalone='no'?>
<svg height="16" xmlns:inkscape="http://www.inkscape.org/namespaces/inkscape" xmlns:sodipodi="http://sodipodi.sourceforge.net/DTD/sodipodi-0.dtd" version="1.1" width="16" xmlns="http://www.w3.org/2000/svg" enable-background="new">
 <metadata id="metadata90"/>
 <defs id="defs7386">
  <linearGradient id="linearGradient5606" osb:paint="solid">
   <stop id="stop5608"/>
  </linearGradient>
  <filter inkscape:collect="always" color-interpolation-filters="sRGB" id="filter7554">
   <feBlend inkscape:collect="always" id="feBlend7556" in2="BackgroundImage" mode="darken"/>
  </filter>
 </defs>
 <g inkscape:groupmode="layer" id="layer9" inkscape:label="status" transform="translate(-281.00021,181)">
  <path inkscape:connector-curvature="0" d="m 289.00021,-180.6082 -2.11874,5.49496 -5.8812,0.31706 4.57147,3.71341 -1.5158,5.6912 4.94427,-3.20011 4.94373,3.20011 -1.51526,-5.6912 4.57147,-3.71341 -5.8812,-0.31706 z" id="polygon5122-0" sodipodi:nodetypes="ccccccccccc" color="#000000" stroke-width="5.359" fill="#bbbbbb"/>
 </g>
</svg>
