<?xml version='1.0' encoding='UTF-8' standalone='no'?>
<svg height="16" xmlns:inkscape="http://www.inkscape.org/namespaces/inkscape" xmlns:sodipodi="http://sodipodi.sourceforge.net/DTD/sodipodi-0.dtd" version="1.1" width="16" xmlns="http://www.w3.org/2000/svg" enable-background="new">
 <metadata id="metadata90"/>
 <defs id="defs7386">
  <linearGradient id="linearGradient5606" osb:paint="solid">
   <stop id="stop5608"/>
  </linearGradient>
  <filter inkscape:collect="always" color-interpolation-filters="sRGB" id="filter7554">
   <feBlend inkscape:collect="always" id="feBlend7556" in2="BackgroundImage" mode="darken"/>
  </filter>
 </defs>
 <g inkscape:groupmode="layer" id="layer9" inkscape:label="status" transform="translate(-381.00041,220.99998)">
  <path inkscape:connector-curvature="0" d="m 384.0002,-220 c 0,0 -2,0 -2,2 l 0,6 c 0,2 2,2 2,2 l 1,0 0,4 4,-4 5,0 c 1.108,0 2,-0.892 2,-2 l 0,-1 0,-2 0,-3 c 0,-2 -1.96875,-2 -1.96875,-2 l -10.03125,0 z m 2,3 c 0.63155,0 1.1317,0.34574 1.5,0.8125 0.3683,-0.46676 0.86845,-0.8125 1.5,-0.8125 0.63155,0 1.1317,0.34574 1.5,0.8125 0.3683,-0.46677 0.86845,-0.8125 1.5,-0.8125 1.09273,0 2,0.90728 2,2 0,1.09272 -0.90727,2 -2,2 -0.63155,0 -1.1317,-0.34573 -1.5,-0.8125 -0.3683,0.46676 -0.86845,0.8125 -1.5,0.8125 -0.63155,0 -1.1317,-0.34574 -1.5,-0.8125 -0.3683,0.46676 -0.86845,0.8125 -1.5,0.8125 -1.09273,0 -2,-0.90727 -2,-2 0,-1.09273 0.90727,-2 2,-2 z" id="path3003-1" opacity="0.35" fill="#bbbbbb"/>
  <path inkscape:connector-curvature="0" d="m 386.0002,-216 c -0.55228,0 -1,0.44772 -1,1 0,0.55228 0.44772,1 1,1 0.55228,0 1,-0.44772 1,-1 0,-0.55228 -0.44772,-1 -1,-1 z m 3.00021,2e-5 c -0.55228,0 -1,0.44772 -1,1 0,0.55228 0.44772,1 1,1 0.55228,0 1,-0.44772 1,-1 0,-0.55228 -0.44772,-1 -1,-1 z m 2.99979,-2e-5 c -0.55229,0 -1,0.44772 -1,1 0,0.55228 0.44771,1 1,1 0.55229,0 1,-0.44772 1,-1 0,-0.55228 -0.44771,-1 -1,-1 z" id="path3008" sodipodi:nodetypes="sssssssssssssss" fill="#bbbbbb"/>
 </g>
</svg>
