<?xml version='1.0' encoding='UTF-8' standalone='no'?>
<svg height="16" xmlns:inkscape="http://www.inkscape.org/namespaces/inkscape" xmlns:sodipodi="http://sodipodi.sourceforge.net/DTD/sodipodi-0.dtd" version="1.1" width="16" xmlns="http://www.w3.org/2000/svg" enable-background="new">
 <metadata id="metadata90"/>
 <defs id="defs7386">
  <linearGradient id="linearGradient5606" osb:paint="solid">
   <stop id="stop5608"/>
  </linearGradient>
  <filter inkscape:collect="always" color-interpolation-filters="sRGB" id="filter7554">
   <feBlend inkscape:collect="always" id="feBlend7556" in2="BackgroundImage" mode="darken"/>
  </filter>
 </defs>
 <g inkscape:groupmode="layer" id="layer9" inkscape:label="status" transform="translate(-441.00014,282.00003)">
  <path inkscape:connector-curvature="0" d="m 447.50021,-282 c -1.933,0 -3.5,1.567 -3.5,3.5 0,0.17907 0.0366,0.35942 0.0625,0.53125 -1.72832,0.21363 -3.0625,1.68263 -3.0625,3.46875 0,1.88087 1.48294,3.41861 3.34375,3.5 0.34513,-0.72417 0.92699,-1.31215 1.65625,-1.65625 0.0814,-1.8608 1.61914,-3.34375 3.5,-3.34375 0.95046,0 1.80679,0.38506 2.4375,1 0.0214,-4.5e-4 0.0409,0 0.0625,0 1.32203,0 2.41289,0.87518 2.8125,2.0625 0.59723,0.0955 1.13781,0.33028 1.59375,0.6875 0.36854,-0.48903 0.59375,-1.08755 0.59375,-1.75 0,-1.65685 -1.34315,-3 -3,-3 -0.19633,0 -0.3767,0.0265 -0.5625,0.0625 -0.20931,-1.16916 -1.20814,-2.0625 -2.4375,-2.0625 -0.0106,0 -0.0207,-1.3e-4 -0.0312,0 -0.24009,-1.699 -1.70349,-3 -3.46875,-3 z" id="path6361" fill="#bbbbbb" color="#bebebe" stroke-width="2"/>
  <path inkscape:connector-curvature="0" d="m 447.625,-267.96875 -0.125,0.46875 -0.0937,0.375 c -0.0105,0.0302 -0.0312,0.0937 -0.0312,0.0937 l 0,0.0312 c 0.005,0.001 0.0278,-8.8e-4 0.0312,0 0.003,6.8e-4 0.0312,-10e-6 0.0312,0 0,0 0.0937,-0.5 0.0937,-0.5 -5e-5,-10e-6 0.12237,-0.46936 0.125,-0.46875 -0.0105,-0.003 -0.0249,0.002 -0.0312,0 z" id="path7984" color="#000000"/>
  <path inkscape:connector-curvature="0" d="m 449.50021,-275 c -1.37479,0 -2.5,1.12521 -2.5,2.5 0,0.19324 0.0205,0.38155 0.0625,0.5625 -1.16601,0.21027 -2.0625,1.21341 -2.0625,2.4375 0,1.37479 1.12521,2.5 2.5,2.5 l 6.75,0 c 1.37479,0 2.5,-1.12521 2.5,-2.5 0,-1.37479 -1.12521,-2.5 -2.5,-2.5 -0.0859,0 -0.16624,0.0227 -0.25,0.0312 1.6e-4,-0.0105 0,-0.0207 0,-0.0312 0,-1.09865 -0.90135,-2 -2,-2 -0.16136,0 -0.31813,0.0258 -0.46875,0.0625 -0.45345,-0.64416 -1.18834,-1.0625 -2.03125,-1.0625 z" id="path4907" sodipodi:nodetypes="sscssssscsscs" color="#bebebe" fill="#bbbbbb"/>
 </g>
</svg>
