<?xml version='1.0' encoding='UTF-8' standalone='no'?>
<svg height="16.08" xmlns:inkscape="http://www.inkscape.org/namespaces/inkscape" xmlns:sodipodi="http://sodipodi.sourceforge.net/DTD/sodipodi-0.dtd" version="1.1" width="16" xmlns="http://www.w3.org/2000/svg" enable-background="new">
 <metadata id="metadata90"/>
 <defs id="defs7386">
  <linearGradient id="linearGradient5606" osb:paint="solid">
   <stop id="stop5608"/>
  </linearGradient>
  <filter inkscape:collect="always" color-interpolation-filters="sRGB" id="filter7554">
   <feBlend inkscape:collect="always" id="feBlend7556" in2="BackgroundImage" mode="darken"/>
  </filter>
 </defs>
 <g inkscape:groupmode="layer" id="layer9" inkscape:label="status" transform="translate(-541.0002,281)">
  <path inkscape:connector-curvature="0" d="m 547.50021,-281 c -1.92707,0 -3.5,1.57293 -3.5,3.5 0,0.17852 0.0365,0.35978 0.0625,0.53125 -1.72441,0.21437 -3.0625,1.68811 -3.0625,3.46875 0,1.92707 1.57293,3.5 3.5,3.5 l 2.5,0 0,-1 0,-1 0,-1 c 0,-0.82843 0.67157,-1.5 1.5,-1.5 0.82843,0 1.5,0.67157 1.5,1.5 l 0,1 0,1 0,1 1.6875,0 2.3125,0 c 1.65093,0 3,-1.34907 3,-3 0,-1.65093 -1.34907,-3 -3,-3 -0.17414,0 -0.33381,0.0337 -0.5,0.0625 -0.10013,-1.14613 -1.0792,-2.0625 -2.25,-2.0625 -0.0997,0 -0.18491,0.0186 -0.28125,0.0312 -0.22776,-1.70978 -1.6985,-3.0312 -3.46875,-3.0312 z" id="path6093-0" color="#000000" fill="#bbbbbb"/>
  <path inkscape:connector-curvature="0" d="m 548.34396,-273.5 a 0.50005,0.50005 0 0 0 -0.34375,0.5 l 0,4.28125 a 0.50219246,0.50219246 0 0 0 -0.0312,0.0937 l -0.625,0.625 -0.0312,0 -1.8125,0 -0.21875,0 -0.125,0.15625 -1,1 a 0.50005,0.50005 0 1 0 0.6875,0.6875 l 0.84365,-0.8437 1.3125,0 0,1.5 a 0.50005,0.50005 0 1 0 1,0 l 0,-1.8125 0.6875,-0.6875 2.125,0 0.75,0.75 -1.40625,1.40625 a 0.50005,0.50005 0 1 0 0.6875,0.6875 l 1.40625,-1.40625 1.40625,1.40625 a 0.50005,0.50005 0 1 0 0.6875,-0.6875 l -3,-3 -0.125,-0.15625 -0.21875,0 -2,0 0,-4 a 0.50005,0.50005 0 0 0 -0.59375,-0.5 0.50005,0.50005 0 0 0 -0.0625,0 z" id="path7353" color="#000000" fill="#f3f048"/>
 </g>
</svg>
