<?xml version='1.0' encoding='UTF-8' standalone='no'?>
<svg height="16" xmlns:inkscape="http://www.inkscape.org/namespaces/inkscape" xmlns:sodipodi="http://sodipodi.sourceforge.net/DTD/sodipodi-0.dtd" version="1.1" width="16" xmlns="http://www.w3.org/2000/svg" enable-background="new">
 <metadata id="metadata90"/>
 <defs id="defs7386">
  <linearGradient id="linearGradient5606" osb:paint="solid">
   <stop id="stop5608"/>
  </linearGradient>
  <filter inkscape:collect="always" color-interpolation-filters="sRGB" id="filter7554">
   <feBlend inkscape:collect="always" id="feBlend7556" in2="BackgroundImage" mode="darken"/>
  </filter>
 </defs>
 <g inkscape:groupmode="layer" id="layer10" inkscape:label="devices" transform="translate(-401.00023,111.00002)" filter="url(#filter7554)">
  <path inkscape:connector-curvature="0" d="m 405.0002,-108 0,2 0,3 0,6 9,0 0,-6 0,-3 0,-0.0312 -0.0312,-0.0312 -1.90625,-1.90625 -0.0312,-0.0312 -0.0312,0 -3,0 z m 1,1 3,0 2.5625,0 1.4375,1.4375 0,2.5625 0,5 -2,0 -5,0 z m 1,7 0,1 5,0 0,-1 z" id="rect2989" sodipodi:nodetypes="cccccccccccccccccccccccccccc" fill="#bebebe"/>
 </g>
</svg>
