<?xml version='1.0' encoding='UTF-8' standalone='no'?>
<svg height="16" xmlns:inkscape="http://www.inkscape.org/namespaces/inkscape" xmlns:sodipodi="http://sodipodi.sourceforge.net/DTD/sodipodi-0.dtd" version="1.1" width="16" xmlns="http://www.w3.org/2000/svg" enable-background="new">
 <metadata id="metadata90"/>
 <defs id="defs7386">
  <linearGradient id="linearGradient5606" osb:paint="solid">
   <stop id="stop5608"/>
  </linearGradient>
  <filter inkscape:collect="always" color-interpolation-filters="sRGB" id="filter7554">
   <feBlend inkscape:collect="always" id="feBlend7556" in2="BackgroundImage" mode="darken"/>
  </filter>
 </defs>
 <g inkscape:groupmode="layer" id="layer10" inkscape:label="devices" transform="translate(-261.0002,111)" filter="url(#filter7554)">
  <path inkscape:connector-curvature="0" d="m 275,-96 c 0,1 -1,1 -1,1 l -10,0 c -1,0 -1,-1 -1,-1 l 0,-14 c 0,-1 1,-1 1,-1 l 10,0 c 0,0 1,0 1,1 z m -0.9998,0 0,-14 -10,0 0,14 z" id="path5124" sodipodi:nodetypes="scscsccssccccc" fill="#bebebe"/>
 </g>
</svg>
