<?xml version='1.0' encoding='UTF-8' standalone='no'?>
<!-- Created with Inkscape (http://www.inkscape.org/) -->

<svg xmlns:cc='http://creativecommons.org/ns#' xmlns:dc='http://purl.org/dc/elements/1.1/' sodipodi:docname='network-wired-disconnected-symbolic.svg' inkscape:export-filename='/home/sam/img/source-symbolic.png' inkscape:export-xdpi='270' inkscape:export-ydpi='270' height='16' id='svg7384' xmlns:inkscape='http://www.inkscape.org/namespaces/inkscape' xmlns:osb='http://www.openswatchbook.org/uri/2009/osb' xmlns:rdf='http://www.w3.org/1999/02/22-rdf-syntax-ns#' xmlns:sodipodi='http://sodipodi.sourceforge.net/DTD/sodipodi-0.dtd' style='enable-background:new' xmlns:svg='http://www.w3.org/2000/svg' version='1.1' inkscape:version='0.48.4 r9939' width='16.000006' xmlns='http://www.w3.org/2000/svg'>
  <sodipodi:namedview inkscape:bbox-nodes='true' inkscape:bbox-paths='true' bordercolor='#666666' borderlayer='false' borderopacity='1' inkscape:current-layer='layer9' inkscape:cx='-15.336824' inkscape:cy='-7.91859' gridtolerance='10' inkscape:guide-bbox='true' guidetolerance='10' id='namedview88' inkscape:object-nodes='true' inkscape:object-paths='true' objecttolerance='10' pagecolor='#333333' inkscape:pageopacity='1' inkscape:pageshadow='2' showborder='true' showgrid='false' showguides='true' inkscape:showpageshadow='true' inkscape:snap-bbox='true' inkscape:snap-bbox-edge-midpoints='false' inkscape:snap-bbox-midpoints='false' inkscape:snap-center='false' inkscape:snap-global='true' inkscape:snap-grids='true' inkscape:snap-intersection-paths='true' inkscape:snap-midpoints='true' inkscape:snap-nodes='true' inkscape:snap-object-midpoints='true' inkscape:snap-others='true' inkscape:snap-page='false' inkscape:snap-smooth-nodes='true' inkscape:snap-to-guides='true' inkscape:window-height='700' inkscape:window-maximized='1' inkscape:window-width='1364' inkscape:window-x='0' inkscape:window-y='28' inkscape:zoom='1'>
    <inkscape:grid color='#000000' dotted='false' empcolor='#0800ff' empopacity='0.4627451' empspacing='4' enabled='true' id='grid4866' opacity='0.16470588' originx='-219.00001px' originy='-620px' snapvisiblegridlinesonly='true' spacingx='0.25px' spacingy='0.25px' type='xygrid' visible='true'/>
  </sodipodi:namedview>
  <metadata id='metadata90'>
    <rdf:RDF>
      <cc:Work rdf:about=''>
        <dc:format>image/svg+xml</dc:format>
        <dc:type rdf:resource='http://purl.org/dc/dcmitype/StillImage'/>
        <dc:title>Moka Symbolic Icon Theme</dc:title>
      </cc:Work>
    </rdf:RDF>
  </metadata>
  <title id='title8473'>Moka Symbolic Icon Theme</title>
  <defs id='defs7386'>
    <linearGradient id='linearGradient5606' osb:paint='solid'>
      <stop id='stop5608' offset='0' style='stop-color:#000000;stop-opacity:1;'/>
    </linearGradient>
    <filter inkscape:collect='always' color-interpolation-filters='sRGB' id='filter7554'>
      <feBlend inkscape:collect='always' id='feBlend7556' in2='BackgroundImage' mode='darken'/>
    </filter>
  </defs>
  <g inkscape:groupmode='layer' id='layer9' inkscape:label='status' style='display:inline' transform='translate(-460.00021,403)'>
    
    <path inkscape:connector-curvature='0' d='m 469.5,-403.5625 0,1.03125 0,1.03125 0,1 -2,0 -0.5,0 -0.5,0 0,0.5 0,1 0,0.5 0.5,0 0.5,0 3,0 0.5,0 0.5,0 0,-0.5 0,-0.34375 2.125,1.84375 -2.125,1.84375 0,-0.34375 0,-0.5 -0.5,0 -0.5,0 -2.5,0 -0.5,0 0,0.5 0,1 0,0.5 0.5,0 1.5,0 0,1 0,1.03125 0,1.03125 0.8125,-0.65625 0.8125,-0.65625 5.1875,-4.375 0.46875,-0.375 -0.46875,-0.375 -5.1875,-4.375 -0.8125,-0.65625 -0.8125,-0.65625 z m 3.8125,4.4375 1.9375,1.625 -1.9375,1.625 1.4375,-1.25 0.40625,-0.375 -0.40625,-0.375 -1.4375,-1.25 z' id='path5918' style='font-size:medium;font-style:normal;font-variant:normal;font-weight:normal;font-stretch:normal;text-indent:0;text-align:start;text-decoration:none;line-height:normal;letter-spacing:normal;word-spacing:normal;text-transform:none;direction:ltr;block-progression:tb;writing-mode:lr-tb;text-anchor:start;baseline-shift:baseline;opacity:0.35;color:#000000;fill-opacity:1;fill-rule:nonzero;stroke:none;stroke-width:1;marker:none;visibility:visible;display:inline;overflow:visible;enable-background:accumulate;font-family:Sans;-inkscape-font-specification:Sans'/>
    <path inkscape:connector-curvature='0' d='m 466.5,-399.5625 -0.8125,0.65625 -0.8125,0.65625 -5.1875,4.375 -0.46875,0.375 0.46875,0.375 5.1875,4.375 0.8125,0.65625 0.8125,0.65625 0,-1.03125 0,-1.03125 0,-1 2,0 0.5,0 0.5,0 0,-0.5 0,-1 0,-0.5 -0.5,0 -0.5,0 -3,0 -0.5,0 -0.5,0 0,0.5 0,0.34375 -2.125,-1.84375 2.125,-1.84375 0,0.34375 0,0.5 0.5,0 0.5,0 2.5,0 0.5,0 0,-0.5 0,-1 0,-0.5 -0.5,0 -1.5,0 0,-1 0,-1.03125 0,-1.03125 z m -3.8125,4.4375 -1.4375,1.25 -0.40625,0.375 0.40625,0.375 1.4375,1.25 -1.9375,-1.625 1.9375,-1.625 z' id='path5920' style='font-size:medium;font-style:normal;font-variant:normal;font-weight:normal;font-stretch:normal;text-indent:0;text-align:start;text-decoration:none;line-height:normal;letter-spacing:normal;word-spacing:normal;text-transform:none;direction:ltr;block-progression:tb;writing-mode:lr-tb;text-anchor:start;baseline-shift:baseline;opacity:0.35;color:#000000;fill-opacity:1;fill-rule:nonzero;stroke:none;stroke-width:1;marker:none;visibility:visible;display:inline;overflow:visible;enable-background:accumulate;font-family:Sans;-inkscape-font-specification:Sans'/>
    <path inkscape:connector-curvature='0' d='m 471.0002,-392 0,1 c 0,0.27614 0.10029,0.53779 0.28125,0.71875 l 0.78125,0.78125 -0.78125,0.78125 c -0.18096,0.18096 -0.28125,0.44261 -0.28125,0.71875 l 0,1 1,0 c 0.27614,0 0.53779,-0.10029 0.71875,-0.28125 l 0.78125,-0.78125 0.78125,0.78125 c 0.18096,0.18096 0.44261,0.28125 0.71875,0.28125 l 1,0 0,-1 c 0,-0.27614 -0.10029,-0.53779 -0.28125,-0.71875 l -0.78125,-0.78125 0.78125,-0.78125 c 0.18096,-0.18096 0.28125,-0.44261 0.28125,-0.71875 l 0,-1 -1,0 c -0.27614,0 -0.53779,0.10029 -0.71875,0.28125 l -0.78125,0.78125 -0.78125,-0.78125 C 472.53799,-391.89971 472.27634,-392 472.0002,-392 l -1,0 z' id='path5898-0' style='fill:#bebebe;fill-opacity:1;stroke:none;display:inline;enable-background:new'/>
  </g>
  <g inkscape:groupmode='layer' id='layer10' inkscape:label='devices' style='display:inline;filter:url(#filter7554)' transform='translate(-460.00021,403)'/>
  <g inkscape:groupmode='layer' id='layer1' inkscape:label='places' style='display:inline' transform='translate(-219.00001,-214)'/>
  <g inkscape:groupmode='layer' id='layer14' inkscape:label='mimetypes' style='display:inline' transform='translate(-460.00021,403)'/>
  <g inkscape:groupmode='layer' id='layer15' inkscape:label='emblems' style='display:inline' transform='translate(-460.00021,403)'/>
  <g inkscape:groupmode='layer' id='g71291' inkscape:label='emotes' style='display:inline' transform='translate(-460.00021,403)'/>
  <g inkscape:groupmode='layer' id='layer2' inkscape:label='categories' style='display:inline' transform='translate(-219.00001,-64)'/>
  <g inkscape:groupmode='layer' id='g6058' inkscape:label='apps' style='display:inline' transform='translate(-219.00001,-64)'/>
  <g inkscape:groupmode='layer' id='layer12' inkscape:label='actions' style='display:inline' transform='translate(-460.00021,403)'/>
</svg>
