<?xml version='1.0' encoding='UTF-8' standalone='no'?>
<!-- Created with Inkscape (http://www.inkscape.org/) -->

<svg xmlns:cc='http://creativecommons.org/ns#' xmlns:dc='http://purl.org/dc/elements/1.1/' sodipodi:docname='network-vpn-acquiring-symbolic.svg' inkscape:export-filename='/home/sam/img/source-symbolic.png' inkscape:export-xdpi='270' inkscape:export-ydpi='270' height='16' id='svg7384' xmlns:inkscape='http://www.inkscape.org/namespaces/inkscape' xmlns:osb='http://www.openswatchbook.org/uri/2009/osb' xmlns:rdf='http://www.w3.org/1999/02/22-rdf-syntax-ns#' xmlns:sodipodi='http://sodipodi.sourceforge.net/DTD/sodipodi-0.dtd' style='enable-background:new' xmlns:svg='http://www.w3.org/2000/svg' version='1.1' inkscape:version='0.48.4 r9939' width='16.000078' xmlns='http://www.w3.org/2000/svg'>
  <sodipodi:namedview inkscape:bbox-nodes='true' inkscape:bbox-paths='true' bordercolor='#666666' borderlayer='false' borderopacity='1' inkscape:current-layer='layer9' inkscape:cx='-16.336732' inkscape:cy='11.08141' gridtolerance='10' inkscape:guide-bbox='true' guidetolerance='10' id='namedview88' inkscape:object-nodes='true' inkscape:object-paths='true' objecttolerance='10' pagecolor='#333333' inkscape:pageopacity='1' inkscape:pageshadow='2' showborder='true' showgrid='false' showguides='true' inkscape:showpageshadow='true' inkscape:snap-bbox='true' inkscape:snap-bbox-edge-midpoints='false' inkscape:snap-bbox-midpoints='false' inkscape:snap-center='false' inkscape:snap-global='true' inkscape:snap-grids='true' inkscape:snap-intersection-paths='true' inkscape:snap-midpoints='true' inkscape:snap-nodes='true' inkscape:snap-object-midpoints='true' inkscape:snap-others='true' inkscape:snap-page='false' inkscape:snap-smooth-nodes='true' inkscape:snap-to-guides='true' inkscape:window-height='700' inkscape:window-maximized='1' inkscape:window-width='1364' inkscape:window-x='0' inkscape:window-y='28' inkscape:zoom='1'>
    <inkscape:grid color='#000000' dotted='false' empcolor='#0800ff' empopacity='0.4627451' empspacing='4' enabled='true' id='grid4866' opacity='0.16470588' originx='-219.99992px' originy='-601px' snapvisiblegridlinesonly='true' spacingx='0.25px' spacingy='0.25px' type='xygrid' visible='true'/>
  </sodipodi:namedview>
  <metadata id='metadata90'>
    <rdf:RDF>
      <cc:Work rdf:about=''>
        <dc:format>image/svg+xml</dc:format>
        <dc:type rdf:resource='http://purl.org/dc/dcmitype/StillImage'/>
        <dc:title>Moka Symbolic Icon Theme</dc:title>
      </cc:Work>
    </rdf:RDF>
  </metadata>
  <title id='title8473'>Moka Symbolic Icon Theme</title>
  <defs id='defs7386'>
    <linearGradient id='linearGradient5606' osb:paint='solid'>
      <stop id='stop5608' offset='0' style='stop-color:#000000;stop-opacity:1;'/>
    </linearGradient>
    <filter inkscape:collect='always' color-interpolation-filters='sRGB' id='filter7554'>
      <feBlend inkscape:collect='always' id='feBlend7556' in2='BackgroundImage' mode='darken'/>
    </filter>
  </defs>
  <g inkscape:groupmode='layer' id='layer9' inkscape:label='status' style='display:inline' transform='translate(-461.00012,384)'>
    <path inkscape:connector-curvature='0' d='m 470.5,-384.5625 0,1.03125 0,1.03125 0,1 -2,0 -0.5,0 -0.5,0 0,0.5 0,0.4375 -0.8125,0.65625 -0.8125,0.65625 -5.1875,4.375 -0.46875,0.375 0.46875,0.375 5.1875,4.375 0.8125,0.65625 0.8125,0.65625 0,-1.03125 0,-1.03125 0,-1 2,0 0.5,0 0.5,0 0,0.5 0,2 0,1 0,0.5 0.5,0 1,0 4,0 1,0 0.5,0 0,-0.5 0,-1 0,-2 0,-1 0,-0.5 -0.5,0 -0.5,0 0,-0.46875 c 0,-1.3854 -1.11783,-2.53125 -2.5,-2.53125 0.0584,0 0.0817,-5.7e-4 0.0937,0 l 0.21875,0 0.15625,-0.125 2.875,-2.5 L 477,-378.5 l 0.34375,-0.375 -0.0312,0 -0.3125,-0.28125 -4.875,-4.09375 -0.8125,-0.65625 -0.8125,-0.65625 z m 2,4.21875 2.15625,1.84375 -1.25,1.1875 -0.28125,0.28125 0.1875,0.34375 c 0.1201,0.22527 0.1875,0.44413 0.1875,0.6875 l 0,0.5 0,0.0625 -0.0937,0 -0.125,0.21875 c -0.22087,0.37015 -0.57545,0.61632 -1.03125,0.6875 l -0.25,0.0312 -0.125,0.21875 c -0.2322,0.37712 -0.375,0.81591 -0.375,1.3125 l 0,0.46875 -0.5,0 -0.5,0 0,-0.15625 0.71875,-0.375 0.0625,-0.0312 0.21875,-0.0937 0.0625,-0.25 c 0.0306,-0.16842 0.0495,-0.28581 0.0937,-0.40625 l 0.25,-0.6875 -0.71875,0 -0.1875,0 0,0.4375 -0.28125,-0.125 c -0.0245,0.0668 -0.0448,0.12364 -0.0625,0.1875 l -0.15625,0 0,0.5 -0.5,0 -0.5,0 -3,0 -0.5,0 -0.5,0 0,0.5 0,0.34375 -2.1875,-1.875 1.03125,-1 0.15625,-0.15625 0,-0.21875 c 3.9e-4,0.005 0,-0.0278 0,-0.0937 0,-0.83965 0.66035,-1.5 1.5,-1.5 l 1,0 0.5,0 0,-0.5 0,-0.5 0,-1 0.5,0 0.5,0 3,0 0.5,0 0.5,0 0,-0.5 0,-0.34375 z m 1.8125,0.21875 1.9375,1.625 -1.375,1.21875 0.875,-0.84375 0.40625,-0.375 -0.40625,-0.375 -1.4375,-1.25 z m -11.53125,4.75 -0.53125,0.53125 -0.40625,0.375 0.40625,0.34375 1.4375,1.25 -1.9375,-1.625 1.03125,-0.875 z M 474,-374.5 c -0.16986,0 -0.28447,0.13421 -0.4375,0.1875 0.0672,-0.0606 0.15851,-0.0885 0.21875,-0.15625 0.1091,-0.0156 0.18508,-0.0312 0.21875,-0.0312 z m -1.15625,0.65625 c -0.1606,0.22049 -0.29223,0.46344 -0.3125,0.75 0.0217,-0.24085 0.0895,-0.47752 0.21875,-0.6875 0.0364,-0.0128 0.0581,-0.0481 0.0937,-0.0625 z M 474,-373.5 c 0.28781,0 0.5,0.20902 0.5,0.5 l 0,0.5 -1,0 0,-0.5 c 0,-0.29098 0.21219,-0.5 0.5,-0.5 z m -2.5,2 0.5,0 0.5,0 0.5,0 2,0 0.5,0 0.5,0 0.5,0 0,0.5 0,2 0,0.5 -0.5,0 -4,0 -0.5,0 0,-0.5 0,-2 0,-0.5 z' id='path5983-7' style='font-size:medium;font-style:normal;font-variant:normal;font-weight:normal;font-stretch:normal;text-indent:0;text-align:start;text-decoration:none;line-height:normal;letter-spacing:normal;word-spacing:normal;text-transform:none;direction:ltr;block-progression:tb;writing-mode:lr-tb;text-anchor:start;baseline-shift:baseline;opacity:0.35;color:#000000;fill-opacity:1;fill-rule:nonzero;stroke:none;stroke-width:1;marker:none;visibility:visible;display:inline;overflow:visible;enable-background:accumulate;font-family:Sans;-inkscape-font-specification:Sans'/>
    <path inkscape:connector-curvature='0' d='m 466,-377.5 c -0.82251,0 -1.5,0.67749 -1.5,1.5 0,0.82251 0.67749,1.5 1.5,1.5 0.82251,0 1.5,-0.67749 1.5,-1.5 0,-0.82251 -0.67749,-1.5 -1.5,-1.5 z m 1.5,1.5 c 0,0.82251 0.67749,1.5 1.5,1.5 0.82251,0 1.5,-0.67749 1.5,-1.5 0,-0.82251 -0.67749,-1.5 -1.5,-1.5 -0.82251,0 -1.5,0.67749 -1.5,1.5 z m 3,0 c 0,0.82251 0.67749,1.5 1.5,1.5 0.82251,0 1.5,-0.67749 1.5,-1.5 0,-0.82251 -0.67749,-1.5 -1.5,-1.5 -0.82251,0 -1.5,0.67749 -1.5,1.5 z m -4.5,-0.5 c 0.28205,0 0.5,0.21795 0.5,0.5 0,0.28205 -0.21795,0.5 -0.5,0.5 -0.28205,0 -0.5,-0.21795 -0.5,-0.5 0,-0.28205 0.21795,-0.5 0.5,-0.5 z m 3,0 c 0.28205,0 0.5,0.21795 0.5,0.5 0,0.28205 -0.21795,0.5 -0.5,0.5 -0.28205,0 -0.5,-0.21795 -0.5,-0.5 0,-0.28205 0.21795,-0.5 0.5,-0.5 z m 3,0 c 0.28205,0 0.5,0.21795 0.5,0.5 0,0.28205 -0.21795,0.5 -0.5,0.5 -0.28205,0 -0.5,-0.21795 -0.5,-0.5 0,-0.28205 0.21795,-0.5 0.5,-0.5 z' id='path6015-5' style='font-size:medium;font-style:normal;font-variant:normal;font-weight:normal;font-stretch:normal;text-indent:0;text-align:start;text-decoration:none;line-height:normal;letter-spacing:normal;word-spacing:normal;text-transform:none;direction:ltr;block-progression:tb;writing-mode:lr-tb;text-anchor:start;baseline-shift:baseline;color:#000000;fill-opacity:1;fill-rule:nonzero;stroke:none;stroke-width:1;marker:none;visibility:visible;display:inline;overflow:visible;enable-background:accumulate;font-family:Sans;-inkscape-font-specification:Sans'/>
    
  </g>
  <g inkscape:groupmode='layer' id='layer10' inkscape:label='devices' style='display:inline;filter:url(#filter7554)' transform='translate(-461.00012,384)'/>
  <g inkscape:groupmode='layer' id='layer1' inkscape:label='places' style='display:inline' transform='translate(-219.99992,-233)'/>
  <g inkscape:groupmode='layer' id='layer14' inkscape:label='mimetypes' style='display:inline' transform='translate(-461.00012,384)'/>
  <g inkscape:groupmode='layer' id='layer15' inkscape:label='emblems' style='display:inline' transform='translate(-461.00012,384)'/>
  <g inkscape:groupmode='layer' id='g71291' inkscape:label='emotes' style='display:inline' transform='translate(-461.00012,384)'/>
  <g inkscape:groupmode='layer' id='layer2' inkscape:label='categories' style='display:inline' transform='translate(-219.99992,-83)'/>
  <g inkscape:groupmode='layer' id='g6058' inkscape:label='apps' style='display:inline' transform='translate(-219.99992,-83)'/>
  <g inkscape:groupmode='layer' id='layer12' inkscape:label='actions' style='display:inline' transform='translate(-461.00012,384)'/>
</svg>
