<?xml version='1.0' encoding='UTF-8' standalone='no'?>
<svg height="24" xmlns:inkscape="http://www.inkscape.org/namespaces/inkscape" xmlns:sodipodi="http://sodipodi.sourceforge.net/DTD/sodipodi-0.dtd" version="1.1" width="24" xmlns="http://www.w3.org/2000/svg">
 <metadata id="metadata90"/>
 <g inkscape:groupmode="layer" id="layer12" inkscape:label="actions" transform="translate(-817.0269,-161)">
  <path inkscape:connector-curvature="0" d="m 819.52762,172.68272 2.07877,2.07763 5.45213,-5.45239 -0.0317,12.69202 2.99999,0 0.0316,-12.69202 5.45158,5.45239 2.07763,-2.07763 -9.0609,-9.00127 z" id="path5867" sodipodi:nodetypes="cccccccccc" fill="#bebebe"/>
 </g>
</svg>
