<?xml version='1.0' encoding='UTF-8' standalone='no'?>
<svg height="24" xmlns:inkscape="http://www.inkscape.org/namespaces/inkscape" xmlns:sodipodi="http://sodipodi.sourceforge.net/DTD/sodipodi-0.dtd" version="1.1" width="24" xmlns="http://www.w3.org/2000/svg">
 <metadata id="metadata90"/>
 <g inkscape:groupmode="layer" id="layer9" inkscape:label="status" transform="translate(-409.00021,-88.999994)">
  <path inkscape:connector-curvature="0" d="m 423.0002,94 0,1 -3,0 -1,0 0,-1 z m 2,2 c 1,0 1,1 1,1 l 2e-5,4.0625 c 1.14126,0.23235 2,1.22563 2,2.4375 l 0,0.5 -1,0 0,2 -1,0 0,-2 -1,0 0,2 -1,0 0,-2 -1,0 0,-0.5 c 0,-1.21187 0.85874,-2.20515 2,-2.4375 l -2e-5,-4.0625 -6,0 -1,0 -1,0 0,10 8,0 2e-5,0 1,0 c 0,1 -1.00002,1 -1.00002,1 l -8,0 c -1,0 -1,-1 -1,-1 l 0,-10 c 0,0 0,-1 1,-1 l 1,0 1,0 z m -1,2 2e-5,2.5625 c -1.12055,0.58172 -2,1.59282 -2,2.9375 l 0,0.5 0,1 1,0 0,1 c 0,0 -4.65537,0 -5.00002,0 l 0,-8 1,0 1,0 z" id="path1070" sodipodi:nodetypes="ccccccsccsccccccccccsccccccccccsccsccsccsccccccccc" fill="#bebebe" color="#000000"/>
 </g>
</svg>
