<?xml version='1.0' encoding='UTF-8' standalone='no'?>
<svg height="24" xmlns:inkscape="http://www.inkscape.org/namespaces/inkscape" xmlns:sodipodi="http://sodipodi.sourceforge.net/DTD/sodipodi-0.dtd" version="1.1" width="24" xmlns="http://www.w3.org/2000/svg">
 <metadata id="metadata90"/>
 <g inkscape:groupmode="layer" id="layer9" inkscape:label="status" transform="translate(-289.0002,-89)">
  <path inkscape:connector-curvature="0" d="m 298.0002,98 0,8 6,0 0,-8 z" id="path7427" sodipodi:nodetypes="ccccc" opacity="0.35" fill="#bebebe"/>
  <path inkscape:connector-curvature="0" d="m 299.0002,94 0,1 4,0 0,-1 z m -2.15625,2 c -0.28125,0.0469 -0.84375,0.25 -0.84375,1 l 0,10 c 0,1 1,1 1,1 l 8,0 c 1,0 1,-1 1,-1 l 0,-10 c 0,0 0,-1 -1,-1 l -8,0 c 0,0 -0.0625,-0.0156 -0.15625,0 z m 0.15625,1 8,0 0,10 -8,0 z m 1,3 0,6 6,0 0,-6 z" id="path7425" sodipodi:nodetypes="ccccccsscsccscccccccccccc" fill="#bebebe"/>
 </g>
</svg>
