<?xml version='1.0' encoding='UTF-8' standalone='no'?>
<svg height="16" xmlns:inkscape="http://www.inkscape.org/namespaces/inkscape" xmlns:sodipodi="http://sodipodi.sourceforge.net/DTD/sodipodi-0.dtd" version="1.1" width="16" xmlns="http://www.w3.org/2000/svg" enable-background="new">
 <metadata id="metadata90"/>
 <defs id="defs7386">
  <linearGradient id="linearGradient5606" osb:paint="solid">
   <stop id="stop5608"/>
  </linearGradient>
  <filter inkscape:collect="always" color-interpolation-filters="sRGB" id="filter7554">
   <feBlend inkscape:collect="always" id="feBlend7556" in2="BackgroundImage" mode="darken"/>
  </filter>
 </defs>
 <g inkscape:groupmode="layer" id="layer1" inkscape:label="places" transform="translate(-542.00003,-274.99998)">
  <path inkscape:connector-curvature="0" d="m 555.00003,279 0,1 2,0 0,8 -10,0 0,-1 -0.9998,0 0,2 12,0 -2e-4,-10 z" id="rect6307-1" sodipodi:nodetypes="ccccccccccc" color="#000000" stroke-width="2" fill="#bebebe"/>
  <path inkscape:connector-curvature="0" d="m 542.00003,276 0,10 12,0 0,-10 z m 1,1 10,0 0,8 -10,0 z" id="rect6307" sodipodi:nodetypes="cccccccccc" color="#000000" stroke-width="2" fill="#bebebe"/>
  <path inkscape:connector-curvature="0" d="m 546.00003,279.65625 -2,2.34375 0,2 8,0 0,-1.34375 -1.65625,-1.65625 -1.6875,1.65625 z" id="rect6402" sodipodi:nodetypes="cccccccc" fill="#bebebe" color="#000000" stroke-width="2"/>
 </g>
</svg>
